Py:Athena            INFO including file "AthenaPoolMultiTest/ExampleStreamConfig.py"
PoolSvc              INFO Setting up APR FileCatalog and Streams
OutputStreamSeq...   INFO Initializing OutputStreamSequencerSvc - package version AthenaServices-00-00-00
Splitter1           DEBUG Property update for OutputLevel : new value = 2
Splitter1            INFO in initialize()
Splitter1           DEBUG input handles: 3
Splitter1           DEBUG output handles: 0
Splitter1           DEBUG Data Deps for Splitter1
Splitter2            INFO in initialize()
Splitter3           DEBUG Property update for OutputLevel : new value = 2
Splitter3            INFO in initialize()
Splitter3           DEBUG input handles: 3
Splitter3           DEBUG output handles: 0
Splitter3           DEBUG Data Deps for Splitter3
Triggered            INFO in initialize()
DecisionSvc          INFO Inserting stream: Stream2 with no Algs
Stream2.Stream2...   INFO Initializing Stream2.Stream2Tool - package version AthenaServices-00-00-00
Stream2.Stream2...   INFO Initializing Stream2.Stream2_MakeEventStreamInfo - package version OutputStreamAthenaPool-00-00-00
Stream2              INFO Found HelperTools = PrivateToolHandleArray(['MakeEventStreamInfo/Stream2_MakeEventStreamInfo','xAODMaker::EventFormatStreamHelperTool/Stream2_MakeEventFormat','Athena::ThinningCacheTool/ThinningCacheTool_Stream2'])
Stream2              INFO Data output: AthenaPoolMultiTest_NoSplit2.root
Stream2              INFO I/O reinitialization...
DecisionSvc          INFO Inserting stream: Stream1 with no Algs
Stream1.Stream1...   INFO Initializing Stream1.Stream1Tool - package version AthenaServices-00-00-00
Stream1.Stream1...   INFO Initializing Stream1.Stream1_MakeEventStreamInfo - package version OutputStreamAthenaPool-00-00-00
Stream1              INFO Found HelperTools = PrivateToolHandleArray(['MakeEventStreamInfo/Stream1_MakeEventStreamInfo','xAODMaker::EventFormatStreamHelperTool/Stream1_MakeEventFormat','Athena::ThinningCacheTool/ThinningCacheTool_Stream1'])
Stream1              INFO Data output: AthenaPoolMultiTest_NoSplit1.root
Stream1              INFO I/O reinitialization...
DecisionSvc          INFO Inserting stream: Stream3 with no Algs
Stream3.Stream3...   INFO Initializing Stream3.Stream3Tool - package version AthenaServices-00-00-00
Stream3.Stream3...   INFO Initializing Stream3.Stream3_MakeEventStreamInfo - package version OutputStreamAthenaPool-00-00-00
Stream3              INFO Found HelperTools = PrivateToolHandleArray(['MakeEventStreamInfo/Stream3_MakeEventStreamInfo','xAODMaker::EventFormatStreamHelperTool/Stream3_MakeEventFormat','Athena::ThinningCacheTool/ThinningCacheTool_Stream3'])
Stream3              INFO Data output: AthenaPoolMultiTest_NoSplit3.root
Stream3              INFO I/O reinitialization...
DecisionSvc          INFO Inserting stream: StreamAll with no Algs
StreamAll.Strea...   INFO Initializing StreamAll.StreamAllTool - package version AthenaServices-00-00-00
StreamAll.Strea...   INFO Initializing StreamAll.StreamAll_MakeEventStreamInfo - package version OutputStreamAthenaPool-00-00-00
StreamAll            INFO Found HelperTools = PrivateToolHandleArray(['MakeEventStreamInfo/StreamAll_MakeEventStreamInfo','xAODMaker::EventFormatStreamHelperTool/StreamAll_MakeEventFormat','Athena::ThinningCacheTool/ThinningCacheTool_StreamAll'])
StreamAll            INFO Data output: AthenaPoolMultiTest_StreamAll.root
StreamAll            INFO I/O reinitialization...
Splitter1           DEBUG in execute()
Splitter1            INFO EventInfo event: 0 run: 0
Splitter1           DEBUG Trigmask = 1
Splitter1            INFO L1 passed
Splitter2            INFO EventInfo event: 0 run: 0
Splitter2            INFO L1 failed
Splitter3           DEBUG in execute()
Splitter3            INFO EventInfo event: 0 run: 0
Splitter3           DEBUG Trigmask = 1
Splitter3            INFO L1 failed
Triggered            INFO EventInfo event: 0 run: 0
Triggered            INFO L1 passed
Domain[ROOT_All]     INFO                           AthenaPoolMultiTest_StreamAll.root
RootDatabase.open    INFO AthenaPoolMultiTest_StreamAll.root File version:62200
Splitter1           DEBUG in execute()
Splitter1            INFO EventInfo event: 1 run: 0
Splitter1           DEBUG Trigmask = 2
Splitter1            INFO L1 failed
Splitter2            INFO EventInfo event: 1 run: 0
Splitter2            INFO L1 passed
Splitter3           DEBUG in execute()
Splitter3            INFO EventInfo event: 1 run: 0
Splitter3           DEBUG Trigmask = 2
Splitter3            INFO L1 failed
Triggered            INFO EventInfo event: 1 run: 0
Triggered            INFO L1 passed
Splitter1           DEBUG in execute()
Splitter1            INFO EventInfo event: 2 run: 0
Splitter1           DEBUG Trigmask = 4
Splitter1            INFO L1 failed
Splitter2            INFO EventInfo event: 2 run: 0
Splitter2            INFO L1 failed
Splitter3           DEBUG in execute()
Splitter3            INFO EventInfo event: 2 run: 0
Splitter3           DEBUG Trigmask = 4
Splitter3            INFO L1 passed
Triggered            INFO EventInfo event: 2 run: 0
Triggered            INFO L1 passed
Splitter1           DEBUG in execute()
Splitter1            INFO EventInfo event: 3 run: 0
Splitter1           DEBUG Trigmask = 256
Splitter1            INFO L1 failed
Splitter2            INFO EventInfo event: 3 run: 0
Splitter2            INFO L1 failed
Splitter3           DEBUG in execute()
Splitter3            INFO EventInfo event: 3 run: 0
Splitter3           DEBUG Trigmask = 256
Splitter3            INFO L1 failed
Triggered            INFO EventInfo event: 3 run: 0
Triggered            INFO L1 passed
Splitter1           DEBUG in execute()
Splitter1            INFO EventInfo event: 4 run: 0
Splitter1           DEBUG Trigmask = 18
Splitter1            INFO L1 failed
Splitter2            INFO EventInfo event: 4 run: 0
Splitter2            INFO L1 passed
Splitter3           DEBUG in execute()
Splitter3            INFO EventInfo event: 4 run: 0
Splitter3           DEBUG Trigmask = 18
Splitter3            INFO L1 failed
Triggered            INFO EventInfo event: 4 run: 0
Triggered            INFO L1 passed
Splitter1           DEBUG in execute()
Splitter1            INFO EventInfo event: 5 run: 0
Splitter1           DEBUG Trigmask = 36
Splitter1            INFO L1 failed
Splitter2            INFO EventInfo event: 5 run: 0
Splitter2            INFO L1 failed
Splitter3           DEBUG in execute()
Splitter3            INFO EventInfo event: 5 run: 0
Splitter3           DEBUG Trigmask = 36
Splitter3            INFO L1 passed
Triggered            INFO EventInfo event: 5 run: 0
Triggered            INFO L1 passed
Splitter1           DEBUG in execute()
Splitter1            INFO EventInfo event: 6 run: 0
Splitter1           DEBUG Trigmask = 65
Splitter1            INFO L1 passed
Splitter2            INFO EventInfo event: 6 run: 0
Splitter2            INFO L1 failed
Splitter3           DEBUG in execute()
Splitter3            INFO EventInfo event: 6 run: 0
Splitter3           DEBUG Trigmask = 65
Splitter3            INFO L1 failed
Triggered            INFO EventInfo event: 6 run: 0
Triggered            INFO L1 passed
Splitter1           DEBUG in execute()
Splitter1            INFO EventInfo event: 7 run: 0
Splitter1           DEBUG Trigmask = 130
Splitter1            INFO L1 failed
Splitter2            INFO EventInfo event: 7 run: 0
Splitter2            INFO L1 passed
Splitter3           DEBUG in execute()
Splitter3            INFO EventInfo event: 7 run: 0
Splitter3           DEBUG Trigmask = 130
Splitter3            INFO L1 failed
Triggered            INFO EventInfo event: 7 run: 0
Triggered            INFO L1 passed
Splitter1           DEBUG in execute()
Splitter1            INFO EventInfo event: 8 run: 0
Splitter1           DEBUG Trigmask = 260
Splitter1            INFO L1 failed
Splitter2            INFO EventInfo event: 8 run: 0
Splitter2            INFO L1 failed
Splitter3           DEBUG in execute()
Splitter3            INFO EventInfo event: 8 run: 0
Splitter3           DEBUG Trigmask = 260
Splitter3            INFO L1 passed
Triggered            INFO EventInfo event: 8 run: 0
Triggered            INFO L1 passed
Splitter1           DEBUG in execute()
Splitter1            INFO EventInfo event: 9 run: 0
Splitter1           DEBUG Trigmask = 513
Splitter1            INFO L1 passed
Splitter2            INFO EventInfo event: 9 run: 0
Splitter2            INFO L1 failed
Splitter3           DEBUG in execute()
Splitter3            INFO EventInfo event: 9 run: 0
Splitter3           DEBUG Trigmask = 513
Splitter3            INFO L1 failed
Triggered            INFO EventInfo event: 9 run: 0
Triggered            INFO L1 passed
Splitter1           DEBUG in execute()
Splitter1            INFO EventInfo event: 10 run: 0
Splitter1           DEBUG Trigmask = 1026
Splitter1            INFO L1 failed
Splitter2            INFO EventInfo event: 10 run: 0
Splitter2            INFO L1 passed
Splitter3           DEBUG in execute()
Splitter3            INFO EventInfo event: 10 run: 0
Splitter3           DEBUG Trigmask = 1026
Splitter3            INFO L1 failed
Triggered            INFO EventInfo event: 10 run: 0
Triggered            INFO L1 passed
Splitter1           DEBUG in execute()
Splitter1            INFO EventInfo event: 11 run: 0
Splitter1           DEBUG Trigmask = 2052
Splitter1            INFO L1 failed
Splitter2            INFO EventInfo event: 11 run: 0
Splitter2            INFO L1 failed
Splitter3           DEBUG in execute()
Splitter3            INFO EventInfo event: 11 run: 0
Splitter3           DEBUG Trigmask = 2052
Splitter3            INFO L1 passed
Triggered            INFO EventInfo event: 11 run: 0
Triggered            INFO L1 passed
Splitter1           DEBUG in execute()
Splitter1            INFO EventInfo event: 12 run: 0
Splitter1           DEBUG Trigmask = 4097
Splitter1            INFO L1 passed
Splitter2            INFO EventInfo event: 12 run: 0
Splitter2            INFO L1 failed
Splitter3           DEBUG in execute()
Splitter3            INFO EventInfo event: 12 run: 0
Splitter3           DEBUG Trigmask = 4097
Splitter3            INFO L1 failed
Triggered            INFO EventInfo event: 12 run: 0
Triggered            INFO L1 passed
Splitter1           DEBUG in execute()
Splitter1            INFO EventInfo event: 13 run: 0
Splitter1           DEBUG Trigmask = 8194
Splitter1            INFO L1 failed
Splitter2            INFO EventInfo event: 13 run: 0
Splitter2            INFO L1 passed
Splitter3           DEBUG in execute()
Splitter3            INFO EventInfo event: 13 run: 0
Splitter3           DEBUG Trigmask = 8194
Splitter3            INFO L1 failed
Triggered            INFO EventInfo event: 13 run: 0
Triggered            INFO L1 passed
Splitter1           DEBUG in execute()
Splitter1            INFO EventInfo event: 14 run: 0
Splitter1           DEBUG Trigmask = 16388
Splitter1            INFO L1 failed
Splitter2            INFO EventInfo event: 14 run: 0
Splitter2            INFO L1 failed
Splitter3           DEBUG in execute()
Splitter3            INFO EventInfo event: 14 run: 0
Splitter3           DEBUG Trigmask = 16388
Splitter3            INFO L1 passed
Triggered            INFO EventInfo event: 14 run: 0
Triggered            INFO L1 passed
Splitter1           DEBUG in execute()
Splitter1            INFO EventInfo event: 15 run: 0
Splitter1           DEBUG Trigmask = 32769
Splitter1            INFO L1 passed
Splitter2            INFO EventInfo event: 15 run: 0
Splitter2            INFO L1 failed
Splitter3           DEBUG in execute()
Splitter3            INFO EventInfo event: 15 run: 0
Splitter3           DEBUG Trigmask = 32769
Splitter3            INFO L1 failed
Triggered            INFO EventInfo event: 15 run: 0
Triggered            INFO L1 passed
Splitter1           DEBUG in execute()
Splitter1            INFO EventInfo event: 16 run: 0
Splitter1           DEBUG Trigmask = 3
Splitter1            INFO L1 passed
Splitter2            INFO EventInfo event: 16 run: 0
Splitter2            INFO L1 passed
Splitter3           DEBUG in execute()
Splitter3            INFO EventInfo event: 16 run: 0
Splitter3           DEBUG Trigmask = 3
Splitter3            INFO L1 failed
Triggered            INFO EventInfo event: 16 run: 0
Triggered            INFO L1 passed
Splitter1           DEBUG in execute()
Splitter1            INFO EventInfo event: 17 run: 0
Splitter1           DEBUG Trigmask = 6
Splitter1            INFO L1 failed
Splitter2            INFO EventInfo event: 17 run: 0
Splitter2            INFO L1 passed
Splitter3           DEBUG in execute()
Splitter3            INFO EventInfo event: 17 run: 0
Splitter3           DEBUG Trigmask = 6
Splitter3            INFO L1 passed
Triggered            INFO EventInfo event: 17 run: 0
Triggered            INFO L1 passed
Splitter1           DEBUG in execute()
Splitter1            INFO EventInfo event: 18 run: 0
Splitter1           DEBUG Trigmask = 5
Splitter1            INFO L1 passed
Splitter2            INFO EventInfo event: 18 run: 0
Splitter2            INFO L1 failed
Splitter3           DEBUG in execute()
Splitter3            INFO EventInfo event: 18 run: 0
Splitter3           DEBUG Trigmask = 5
Splitter3            INFO L1 passed
Triggered            INFO EventInfo event: 18 run: 0
Triggered            INFO L1 passed
Splitter1           DEBUG in execute()
Splitter1            INFO EventInfo event: 19 run: 0
Splitter1           DEBUG Trigmask = 10
Splitter1            INFO L1 failed
Splitter2            INFO EventInfo event: 19 run: 0
Splitter2            INFO L1 passed
Splitter3           DEBUG in execute()
Splitter3            INFO EventInfo event: 19 run: 0
Splitter3           DEBUG Trigmask = 10
Splitter3            INFO L1 failed
Triggered            INFO EventInfo event: 19 run: 0
Triggered            INFO L1 passed
StorageSvc           INFO EventStreamInfo_p3 [11DF1B8C-0DEE-4687-80D7-E74B520ACBB4]
StreamAll            INFO Metadata records written: 21
Splitter1            INFO in finalize()
Splitter2            INFO in finalize()
Splitter3            INFO in finalize()
Triggered            INFO in finalize()
ItemListSvc         DEBUG STREAM StreamAll has (8) items
ItemListSvc         DEBUG    - EventStreamInfo_StreamAll
ItemListSvc         DEBUG    - xAOD::EventFormat_EventFormatStreamAll
